{
  "name": "Resources",
  "key": "r.",
  "measurements": [
    {
      "name": "Electric Charge",
      "key": "r.resource.ElectricCharge",
      "values": [
        {
          "key": "value",
          "name": "Value",
          "format": "float",
          "hints": {
            "range": 1
          }
        },
        {
          "key": "utc",
          "source": "timestamp",
          "name": "Timestamp",
          "format": "utc",
          "hints": {
            "domain": 1
          }
        }
      ]
    },
    {
      "name": "Electric Charge in current Stage",
      "key": "r.resourceCurrent.ElectricCharge",
      "values": [
        {
          "key": "value",
          "name": "Value",
          "format": "float",
          "hints": {
            "range": 1
          }
        },
        {
          "key": "utc",
          "source": "timestamp",
          "name": "Timestamp",
          "format": "utc",
          "hints": {
            "domain": 1
          }
        }
      ]
    },
    {
      "name": "Max Electric Charge in current Stage",
      "key": "r.resourceCurrentMax.ElectricCharge",
      "values": [
        {
          "key": "value",
          "name": "Value",
          "format": "float",
          "hints": {
            "range": 1
          }
        },
        {
          "key": "utc",
          "source": "timestamp",
          "name": "Timestamp",
          "format": "utc",
          "hints": {
            "domain": 1
          }
        }
      ]
    },
    {
      "name": "Max Electric Charge",
      "key": "r.resourceMax.ElectricCharge",
      "values": [
        {
          "key": "value",
          "name": "Value",
          "format": "float",
          "hints": {
            "range": 1
          }
        },
        {
          "key": "utc",
          "source": "timestamp",
          "name": "Timestamp",
          "format": "utc",
          "hints": {
            "domain": 1
          }
        }
      ]
    },
    {
      "name": "Liquid Fuel",
      "key": "r.resource.LiquidFuel",
      "values": [
        {
          "key": "value",
          "name": "Value",
          "format": "float",
          "hints": {
            "range": 1
          }
        },
        {
          "key": "utc",
          "source": "timestamp",
          "name": "Timestamp",
          "format": "utc",
          "hints": {
            "domain": 1
          }
        }
      ]
    },
    {
      "name": "Liquid Fuel in current Stage",
      "key": "r.resourceCurrent.LiquidFuel",
      "values": [
        {
          "key": "value",
          "name": "Value",
          "format": "float",
          "hints": {
            "range": 1
          }
        },
        {
          "key": "utc",
          "source": "timestamp",
          "name": "Timestamp",
          "format": "utc",
          "hints": {
            "domain": 1
          }
        }
      ]
    },
    {
      "name": "Max Liquid Fuel in current Stage",
      "key": "r.resourceCurrentMax.LiquidFuel",
      "values": [
        {
          "key": "value",
          "name": "Value",
          "format": "float",
          "hints": {
            "range": 1
          }
        },
        {
          "key": "utc",
          "source": "timestamp",
          "name": "Timestamp",
          "format": "utc",
          "hints": {
            "domain": 1
          }
        }
      ]
    },
    {
      "name": "Max Liquid Fuel",
      "key": "r.resourceMax.LiquidFuel",
      "values": [
        {
          "key": "value",
          "name": "Value",
          "format": "float",
          "hints": {
            "range": 1
          }
        },
        {
          "key": "utc",
          "source": "timestamp",
          "name": "Timestamp",
          "format": "utc",
          "hints": {
            "domain": 1
          }
        }
      ]
    },
    {
      "name": "Oxidizer",
      "key": "r.resource.Oxidizer",
      "values": [
        {
          "key": "value",
          "name": "Value",
          "format": "float",
          "hints": {
            "range": 1
          }
        },
        {
          "key": "utc",
          "source": "timestamp",
          "name": "Timestamp",
          "format": "utc",
          "hints": {
            "domain": 1
          }
        }
      ]
    },
    {
      "name": "Oxidizer in current Stage",
      "key": "r.resourceCurrent.Oxidizer",
      "values": [
        {
          "key": "value",
          "name": "Value",
          "format": "float",
          "hints": {
            "range": 1
          }
        },
        {
          "key": "utc",
          "source": "timestamp",
          "name": "Timestamp",
          "format": "utc",
          "hints": {
            "domain": 1
          }
        }
      ]
    },
    {
      "name": "Max Oxidizer in current Stage",
      "key": "r.resourceCurrentMax.Oxidizer",
      "values": [
        {
          "key": "value",
          "name": "Value",
          "format": "float",
          "hints": {
            "range": 1
          }
        },
        {
          "key": "utc",
          "source": "timestamp",
          "name": "Timestamp",
          "format": "utc",
          "hints": {
            "domain": 1
          }
        }
      ]
    },
    {
      "name": "Max Oxidizer",
      "key": "r.resourceMax.Oxidizer",
      "values": [
        {
          "key": "value",
          "name": "Value",
          "format": "float",
          "hints": {
            "range": 1
          }
        },
        {
          "key": "utc",
          "source": "timestamp",
          "name": "Timestamp",
          "format": "utc",
          "hints": {
            "domain": 1
          }
        }
      ]
    },
    {
      "name": "Intake Air",
      "key": "r.resource.IntakeAir",
      "values": [
        {
          "key": "value",
          "name": "Value",
          "format": "float",
          "hints": {
            "range": 1
          }
        },
        {
          "key": "utc",
          "source": "timestamp",
          "name": "Timestamp",
          "format": "utc",
          "hints": {
            "domain": 1
          }
        }
      ]
    },
    {
      "name": "Intake Air in current Stage",
      "key": "r.resourceCurrent.IntakeAir",
      "values": [
        {
          "key": "value",
          "name": "Value",
          "format": "float",
          "hints": {
            "range": 1
          }
        },
        {
          "key": "utc",
          "source": "timestamp",
          "name": "Timestamp",
          "format": "utc",
          "hints": {
            "domain": 1
          }
        }
      ]
    },
    {
      "name": "Max Intake Air in current Stage",
      "key": "r.resourceCurrentMax.IntakeAir",
      "values": [
        {
          "key": "value",
          "name": "Value",
          "format": "float",
          "hints": {
            "range": 1
          }
        },
        {
          "key": "utc",
          "source": "timestamp",
          "name": "Timestamp",
          "format": "utc",
          "hints": {
            "domain": 1
          }
        }
      ]
    },
    {
      "name": "Max Intake Air",
      "key": "r.resourceMax.IntakeAir",
      "values": [
        {
          "key": "value",
          "name": "Value",
          "format": "float",
          "hints": {
            "range": 1
          }
        },
        {
          "key": "utc",
          "source": "timestamp",
          "name": "Timestamp",
          "format": "utc",
          "hints": {
            "domain": 1
          }
        }
      ]
    },
    {
      "name": "Solid Fuel",
      "key": "r.resource.SolidFuel",
      "values": [
        {
          "key": "value",
          "name": "Value",
          "format": "float",
          "hints": {
            "range": 1
          }
        },
        {
          "key": "utc",
          "source": "timestamp",
          "name": "Timestamp",
          "format": "utc",
          "hints": {
            "domain": 1
          }
        }
      ]
    },
    {
      "name": "Solid Fuel in current Stage",
      "key": "r.resourceCurrent.SolidFuel",
      "values": [
        {
          "key": "value",
          "name": "Value",
          "format": "float",
          "hints": {
            "range": 1
          }
        },
        {
          "key": "utc",
          "source": "timestamp",
          "name": "Timestamp",
          "format": "utc",
          "hints": {
            "domain": 1
          }
        }
      ]
    },
    {
      "name": "Max Solid Fuel in current Stage",
      "key": "r.resourceCurrentMax.SolidFuel",
      "values": [
        {
          "key": "value",
          "name": "Value",
          "format": "float",
          "hints": {
            "range": 1
          }
        },
        {
          "key": "utc",
          "source": "timestamp",
          "name": "Timestamp",
          "format": "utc",
          "hints": {
            "domain": 1
          }
        }
      ]
    },
    {
      "name": "Max Solid Fuel",
      "key": "r.resourceMax.SolidFuel",
      "values": [
        {
          "key": "value",
          "name": "Value",
          "format": "float",
          "hints": {
            "range": 1
          }
        },
        {
          "key": "utc",
          "source": "timestamp",
          "name": "Timestamp",
          "format": "utc",
          "hints": {
            "domain": 1
          }
        }
      ]
    },
    {
      "name": "Monopropellant",
      "key": "r.resource.Monopropellant",
      "values": [
        {
          "key": "value",
          "name": "Value",
          "format": "float",
          "hints": {
            "range": 1
          }
        },
        {
          "key": "utc",
          "source": "timestamp",
          "name": "Timestamp",
          "format": "utc",
          "hints": {
            "domain": 1
          }
        }
      ]
    },
    {
      "name": "Monopropellant in current Stage",
      "key": "r.resourceCurrent.Monopropellant",
      "values": [
        {
          "key": "value",
          "name": "Value",
          "format": "float",
          "hints": {
            "range": 1
          }
        },
        {
          "key": "utc",
          "source": "timestamp",
          "name": "Timestamp",
          "format": "utc",
          "hints": {
            "domain": 1
          }
        }
      ]
    },
    {
      "name": "Max Monopropellant in current Stage",
      "key": "r.resourceCurrentMax.Monopropellant",
      "values": [
        {
          "key": "value",
          "name": "Value",
          "format": "float",
          "hints": {
            "range": 1
          }
        },
        {
          "key": "utc",
          "source": "timestamp",
          "name": "Timestamp",
          "format": "utc",
          "hints": {
            "domain": 1
          }
        }
      ]
    },
    {
      "name": "Max Monopropellant",
      "key": "r.resourceMax.Monopropellant",
      "values": [
        {
          "key": "value",
          "name": "Value",
          "format": "float",
          "hints": {
            "range": 1
          }
        },
        {
          "key": "utc",
          "source": "timestamp",
          "name": "Timestamp",
          "format": "utc",
          "hints": {
            "domain": 1
          }
        }
      ]
    },
    {
      "name": "EVA Propellant",
      "key": "r.resource.EVAPropellant",
      "values": [
        {
          "key": "value",
          "name": "Value",
          "format": "float",
          "hints": {
            "range": 1
          }
        },
        {
          "key": "utc",
          "source": "timestamp",
          "name": "Timestamp",
          "format": "utc",
          "hints": {
            "domain": 1
          }
        }
      ]
    },
    {
      "name": "EVA Propellant in current Stage",
      "key": "r.resourceCurrent.EVAPropellant",
      "values": [
        {
          "key": "value",
          "name": "Value",
          "format": "float",
          "hints": {
            "range": 1
          }
        },
        {
          "key": "utc",
          "source": "timestamp",
          "name": "Timestamp",
          "format": "utc",
          "hints": {
            "domain": 1
          }
        }
      ]
    },
    {
      "name": "Max EVA Propellant in current Stage",
      "key": "r.resourceCurrentMax.EVAPropellant",
      "values": [
        {
          "key": "value",
          "name": "Value",
          "format": "float",
          "hints": {
            "range": 1
          }
        },
        {
          "key": "utc",
          "source": "timestamp",
          "name": "Timestamp",
          "format": "utc",
          "hints": {
            "domain": 1
          }
        }
      ]
    },
    {
      "name": "Max EVA Propellant",
      "key": "r.resourceMax.EVAPropellant",
      "values": [
        {
          "key": "value",
          "name": "Value",
          "format": "float",
          "hints": {
            "range": 1
          }
        },
        {
          "key": "utc",
          "source": "timestamp",
          "name": "Timestamp",
          "format": "utc",
          "hints": {
            "domain": 1
          }
        }
      ]
    },
    {
      "name": "Xenon Gas",
      "key": "r.resource.XenonGas",
      "values": [
        {
          "key": "value",
          "name": "Value",
          "format": "float",
          "hints": {
            "range": 1
          }
        },
        {
          "key": "utc",
          "source": "timestamp",
          "name": "Timestamp",
          "format": "utc",
          "hints": {
            "domain": 1
          }
        }
      ]
    },
    {
      "name": "Xenon Gas in current Stage",
      "key": "r.resourceCurrent.XenonGas",
      "values": [
        {
          "key": "value",
          "name": "Value",
          "format": "float",
          "hints": {
            "range": 1
          }
        },
        {
          "key": "utc",
          "source": "timestamp",
          "name": "Timestamp",
          "format": "utc",
          "hints": {
            "domain": 1
          }
        }
      ]
    },
    {
      "name": "Max Xenon Gas in current Stage",
      "key": "r.resourceCurrentMax.XenonGas",
      "values": [
        {
          "key": "value",
          "name": "Value",
          "format": "float",
          "hints": {
            "range": 1
          }
        },
        {
          "key": "utc",
          "source": "timestamp",
          "name": "Timestamp",
          "format": "utc",
          "hints": {
            "domain": 1
          }
        }
      ]
    },
    {
      "name": "Max Xenon Gas",
      "key": "r.resourceMax.XenonGas",
      "values": [
        {
          "key": "value",
          "name": "Value",
          "format": "float",
          "hints": {
            "range": 1
          }
        },
        {
          "key": "utc",
          "source": "timestamp",
          "name": "Timestamp",
          "format": "utc",
          "hints": {
            "domain": 1
          }
        }
      ]
    },
    {
      "name": "Ore",
      "key": "r.resource.Ore",
      "values": [
        {
          "key": "value",
          "name": "Value",
          "format": "float",
          "hints": {
            "range": 1
          }
        },
        {
          "key": "utc",
          "source": "timestamp",
          "name": "Timestamp",
          "format": "utc",
          "hints": {
            "domain": 1
          }
        }
      ]
    },
    {
      "name": "Ore in current Stage",
      "key": "r.resourceCurrent.Ore",
      "values": [
        {
          "key": "value",
          "name": "Value",
          "format": "float",
          "hints": {
            "range": 1
          }
        },
        {
          "key": "utc",
          "source": "timestamp",
          "name": "Timestamp",
          "format": "utc",
          "hints": {
            "domain": 1
          }
        }
      ]
    },
    {
      "name": "Max Ore in current Stage",
      "key": "r.resourceCurrentMax.Ore",
      "values": [
        {
          "key": "value",
          "name": "Value",
          "format": "float",
          "hints": {
            "range": 1
          }
        },
        {
          "key": "utc",
          "source": "timestamp",
          "name": "Timestamp",
          "format": "utc",
          "hints": {
            "domain": 1
          }
        }
      ]
    },
    {
      "name": "Max Ore",
      "key": "r.resourceMax.Ore",
      "values": [
        {
          "key": "value",
          "name": "Value",
          "format": "float",
          "hints": {
            "range": 1
          }
        },
        {
          "key": "utc",
          "source": "timestamp",
          "name": "Timestamp",
          "format": "utc",
          "hints": {
            "domain": 1
          }
        }
      ]
    },
    {
      "name": "Ablator",
      "key": "r.resource.Ablator",
      "values": [
        {
          "key": "value",
          "name": "Value",
          "format": "float",
          "hints": {
            "range": 1
          }
        },
        {
          "key": "utc",
          "source": "timestamp",
          "name": "Timestamp",
          "format": "utc",
          "hints": {
            "domain": 1
          }
        }
      ]
    },
    {
      "name": "Ablator in current Stage",
      "key": "r.resourceCurrent.Ablator",
      "values": [
        {
          "key": "value",
          "name": "Value",
          "format": "float",
          "hints": {
            "range": 1
          }
        },
        {
          "key": "utc",
          "source": "timestamp",
          "name": "Timestamp",
          "format": "utc",
          "hints": {
            "domain": 1
          }
        }
      ]
    },
    {
      "name": "Max Ablator in current Stage",
      "key": "r.resourceCurrentMax.Ablator",
      "values": [
        {
          "key": "value",
          "name": "Value",
          "format": "float",
          "hints": {
            "range": 1
          }
        },
        {
          "key": "utc",
          "source": "timestamp",
          "name": "Timestamp",
          "format": "utc",
          "hints": {
            "domain": 1
          }
        }
      ]
    },
    {
      "name": "Max Ablator",
      "key": "r.resourceMax.Ablator",
      "values": [
        {
          "key": "value",
          "name": "Value",
          "format": "float",
          "hints": {
            "range": 1
          }
        },
        {
          "key": "utc",
          "source": "timestamp",
          "name": "Timestamp",
          "format": "utc",
          "hints": {
            "domain": 1
          }
        }
      ]
    }
  ]
}