{
  "name": "Sensors",
  "key": "s.",
  "measurements": [
    {
      "name": "Temperature sensor",
      "key": "s.sensor.temp",
      "values": [
        {
          "key": "value",
          "name": "Value",
          "format": "float",
          "units": "°",
          "hints": {
            "range": 1
          }
        },
        {
          "key": "utc",
          "source": "timestamp",
          "name": "Timestamp",
          "format": "utc",
          "hints": {
            "domain": 1
          }
        }
      ]
    },
    {
      "name": "Pressure sensor",
      "key": "s.sensor.pres",
      "values": [
        {
          "key": "value",
          "name": "Value",
          "format": "float",
          "units": "bar",
          "hints": {
            "range": 1
          }
        },
        {
          "key": "utc",
          "source": "timestamp",
          "name": "Timestamp",
          "format": "utc",
          "hints": {
            "domain": 1
          }
        }
      ]
    },
    {
      "name": "Gravity sensor",
      "key": "s.sensor.grav",
      "values": [
        {
          "key": "value",
          "name": "Value",
          "format": "float",
          "units": "m/s^2",
          "hints": {
            "range": 1
          }
        },
        {
          "key": "utc",
          "source": "timestamp",
          "name": "Timestamp",
          "format": "utc",
          "hints": {
            "domain": 1
          }
        }
      ]
    },
    {
      "name": "Acceleration sensor",
      "key": "s.sensor.acc",
      "values": [
        {
          "key": "value",
          "name": "Value",
          "format": "float",
          "units": "m/s^2",
          "hints": {
            "range": 1
          }
        },
        {
          "key": "utc",
          "source": "timestamp",
          "name": "Timestamp",
          "format": "utc",
          "hints": {
            "domain": 1
          }
        }
      ]
    }
  ]
}
